{
  "project_info": {
    "project_number": "961245762123",
    "firebase_url": "https://eventiplex-with-campusmgmt.firebaseio.com",
    "project_id": "eventiplex-with-campusmgmt",
    "storage_bucket": "eventiplex-with-campusmgmt.appspot.com"
  },
  "client": [
    {
      "client_info": {
        "mobilesdk_app_id": "1:961245762123:android:43f52c1cf9d4a9c4",
        "android_client_info": {
          "package_name": "com.event.app"
        }
      },
      "oauth_client": [
        {
          "client_id": "961245762123-vuo8n1s7ju128t4t1ghua65ekij583m1.apps.googleusercontent.com",
          "client_type": 3
        }
      ],
      "api_key": [
        {
          "current_key": "AIzaSyBLebdlHAyBQvihLCUA2Rb72liwdgVIkfo"
        }
      ],
      "services": {
        "analytics_service": {
          "status": 1
        },
        "appinvite_service": {
          "status": 1,
          "other_platform_oauth_client": []
        },
        "ads_service": {
          "status": 2
        }
      }
    },
    {
      "client_info": {
        "mobilesdk_app_id": "1:961245762123:android:1757d5fa3f6a36c8",
        "android_client_info": {
          "package_name": "com.inqude.pennstate.admin"
        }
      },
      "oauth_client": [
        {
          "client_id": "961245762123-vuo8n1s7ju128t4t1ghua65ekij583m1.apps.googleusercontent.com",
          "client_type": 3
        }
      ],
      "api_key": [
        {
          "current_key": "AIzaSyBLebdlHAyBQvihLCUA2Rb72liwdgVIkfo"
        }
      ],
      "services": {
        "analytics_service": {
          "status": 1
        },
        "appinvite_service": {
          "status": 1,
          "other_platform_oauth_client": []
        },
        "ads_service": {
          "status": 2
        }
      }
    },
    {
      "client_info": {
        "mobilesdk_app_id": "1:961245762123:android:f640fb0619dacdda",
        "android_client_info": {
          "package_name": "com.inqude.pennstate.events"
        }
      },
      "oauth_client": [
        {
          "client_id": "961245762123-vuo8n1s7ju128t4t1ghua65ekij583m1.apps.googleusercontent.com",
          "client_type": 3
        }
      ],
      "api_key": [
        {
          "current_key": "AIzaSyBLebdlHAyBQvihLCUA2Rb72liwdgVIkfo"
        }
      ],
      "services": {
        "analytics_service": {
          "status": 1
        },
        "appinvite_service": {
          "status": 1,
          "other_platform_oauth_client": []
        },
        "ads_service": {
          "status": 2
        }
      }
    }
  ],
  "configuration_version": "1"
}